[gd_scene load_steps=3 format=2]

[ext_resource path="res://Inventory/panel.png" type="Texture" id=1]
[ext_resource path="res://Scripts/Level2/Invpanel.gd" type="Script" id=2]

[node name="Instruction" type="Node2D"]

[node name="TextureButton" type="TextureButton" parent="."]
margin_left = -54.0
margin_top = -48.0
margin_right = 53.0
margin_bottom = 44.0
rect_rotation = 5.06286
texture_normal = ExtResource( 1 )
expand = true
script = ExtResource( 2 )

[connection signal="pressed" from="TextureButton" to="TextureButton" method="_on_TextureButton_pressed"]
