[gd_resource type="Animation" format=2]

[resource]
resource_name = "Walk"
length = 1.2
loop = true
tracks/0/type = "value"
tracks/0/path = NodePath("Skeleton2D/Hip/Body/shoulder/ArmRightUpper/ArmRightLower/Hand:rotation_degrees")
tracks/0/interp = 1
tracks/0/loop_wrap = true
tracks/0/imported = false
tracks/0/enabled = true
tracks/0/keys = {
"times": PoolRealArray( 0, 0.2, 0.4, 0.6, 0.8, 1, 1.2 ),
"transitions": PoolRealArray( 1, 1, 1, 1, 1, 1, 1 ),
"update": 0,
"values": [ 0.0, -8.38301, -51.2497, -51.2497, -51.2497, -51.2497, -25.6248 ]
}
tracks/1/type = "value"
tracks/1/path = NodePath("Skeleton2D/Hip/Body/shoulder/ArmRightUpper/ArmRightLower:rotation_degrees")
tracks/1/interp = 1
tracks/1/loop_wrap = true
tracks/1/imported = false
tracks/1/enabled = true
tracks/1/keys = {
"times": PoolRealArray( 0, 0.2, 0.4, 0.6, 0.8, 1, 1.1, 1.2 ),
"transitions": PoolRealArray( 1, 1, 1, 1, 1, 1, 1, 1 ),
"update": 0,
"values": [ -14.9757, -29.1379, -28.9381, -28.9381, -4.95268, -4.95268, -9.9642, -14.9757 ]
}
tracks/2/type = "value"
tracks/2/path = NodePath("Skeleton2D/Hip/Body/shoulder:rotation_degrees")
tracks/2/interp = 1
tracks/2/loop_wrap = true
tracks/2/imported = false
tracks/2/enabled = true
tracks/2/keys = {
"times": PoolRealArray( 0, 0.2, 0.4, 0.6, 0.8, 1, 1.1, 1.2 ),
"transitions": PoolRealArray( 1, 1, 1, 1, 1, 1, 1, 1 ),
"update": 0,
"values": [ -11.9043, -38.1399, -18.4494, 20.6886, 42.1858, 24.7599, 6.42778, -11.9043 ]
}
tracks/3/type = "value"
tracks/3/path = NodePath("Skeleton2D/Hip/Body/shoulder/ArmRightUpper:rotation_degrees")
tracks/3/interp = 1
tracks/3/loop_wrap = true
tracks/3/imported = false
tracks/3/enabled = true
tracks/3/keys = {
"times": PoolRealArray( 0, 0.2, 0.4, 0.6, 0.8, 1, 1.1, 1.2 ),
"transitions": PoolRealArray( 1, 1, 1, 1, 1, 1, 1, 1 ),
"update": 0,
"values": [ -28.3258, -36.3733, -25.6232, -40.0496, -31.7141, -31.7141, -30.02, -28.3258 ]
}
tracks/4/type = "value"
tracks/4/path = NodePath("Skeleton2D/Hip/LegUpperRight2/LegLowerRight:rotation_degrees")
tracks/4/interp = 1
tracks/4/loop_wrap = true
tracks/4/imported = false
tracks/4/enabled = true
tracks/4/keys = {
"times": PoolRealArray( 0, 0.2, 0.4, 0.6, 0.8, 1, 1.1, 1.2 ),
"transitions": PoolRealArray( 1, 1, 1, 1, 1, 1, 1, 1 ),
"update": 0,
"values": [ 11.8849, 18.295, -15.657, 4.42162, 4.42162, 42.4889, 27.1869, 11.8849 ]
}
tracks/5/type = "value"
tracks/5/path = NodePath("Skeleton2D/Hip/Body/shoulder2/ArmLeftUpper:rotation_degrees")
tracks/5/interp = 1
tracks/5/loop_wrap = true
tracks/5/imported = false
tracks/5/enabled = true
tracks/5/keys = {
"times": PoolRealArray( 0, 0.2, 0.4, 0.6, 0.8, 1, 1.1, 1.2 ),
"transitions": PoolRealArray( 1, 1, 1, 1, 1, 1, 1, 1 ),
"update": 0,
"values": [ -28.0024, -28.0024, -58.7598, -58.7598, -52.5426, -14.7099, -21.3561, -28.0024 ]
}
tracks/6/type = "value"
tracks/6/path = NodePath("Skeleton2D/Hip/Body/shoulder2:rotation_degrees")
tracks/6/interp = 1
tracks/6/loop_wrap = true
tracks/6/imported = false
tracks/6/enabled = true
tracks/6/keys = {
"times": PoolRealArray( 0, 0.2, 0.4, 0.6, 0.8, 1, 1.1, 1.2 ),
"transitions": PoolRealArray( 1, 1, 1, 1, 1, 1, 1, 1 ),
"update": 0,
"values": [ 18.3964, 56.4656, 23.8238, 6.20811, -5.54648, -5.54648, 6.42494, 18.3964 ]
}
tracks/7/type = "value"
tracks/7/path = NodePath("Skeleton2D/Hip/Body/shoulder2/ArmLeftUpper/ArmLeftLower/Hand:rotation_degrees")
tracks/7/interp = 1
tracks/7/loop_wrap = true
tracks/7/imported = false
tracks/7/enabled = true
tracks/7/keys = {
"times": PoolRealArray( 0, 0.2, 0.4, 0.6, 0.8, 1, 1.1, 1.2 ),
"transitions": PoolRealArray( 1, 1, 1, 1, 1, 1, 1, 1 ),
"update": 0,
"values": [ 0.0, 17.4007, 17.4007, 17.4007, 17.4007, 17.4007, 8.70033, 0.0 ]
}
tracks/8/type = "value"
tracks/8/path = NodePath("Skeleton2D/Hip/Body/shoulder2/ArmLeftUpper/ArmLeftLower:rotation_degrees")
tracks/8/interp = 1
tracks/8/loop_wrap = true
tracks/8/imported = false
tracks/8/enabled = true
tracks/8/keys = {
"times": PoolRealArray( 0, 0.2, 0.4, 0.6, 0.8, 1, 1.1, 1.2 ),
"transitions": PoolRealArray( 1, 1, 1, 1, 1, 1, 1, 1 ),
"update": 0,
"values": [ -0.871695, -4.83192, -4.83192, -4.83192, -4.83192, -4.83192, -2.85181, -0.871695 ]
}
tracks/9/type = "value"
tracks/9/path = NodePath("Skeleton2D/Hip:rotation_degrees")
tracks/9/interp = 1
tracks/9/loop_wrap = true
tracks/9/imported = false
tracks/9/enabled = true
tracks/9/keys = {
"times": PoolRealArray( 0, 0.2, 0.4, 0.6, 0.8, 1, 1.1, 1.2 ),
"transitions": PoolRealArray( 1, 1, 1, 1, 1, 1, 1, 1 ),
"update": 0,
"values": [ 0.214358, 0.214358, 0.214358, 0.214358, 0.214358, 0.214358, 0.214358, 0.214358 ]
}
tracks/10/type = "value"
tracks/10/path = NodePath("Skeleton2D/Hip/Body:rotation_degrees")
tracks/10/interp = 1
tracks/10/loop_wrap = true
tracks/10/imported = false
tracks/10/enabled = true
tracks/10/keys = {
"times": PoolRealArray( 0, 0.2, 0.4, 0.6, 0.8, 1, 1.1, 1.2 ),
"transitions": PoolRealArray( 1, 1, 1, 1, 1, 1, 1, 1 ),
"update": 0,
"values": [ 0.0, 0.95076, 0.95076, 0.95076, 0.95076, 0.95076, 0.47538, 0.0 ]
}
tracks/11/type = "value"
tracks/11/path = NodePath("Skeleton2D/Hip/HipUpperRight/LegUpperRight/Bone2D:position")
tracks/11/interp = 1
tracks/11/loop_wrap = true
tracks/11/imported = false
tracks/11/enabled = true
tracks/11/keys = {
"times": PoolRealArray( 0, 0.2, 0.4, 0.6, 0.8, 1, 1.1, 1.2 ),
"transitions": PoolRealArray( 1, 1, 1, 1, 1, 1, 1, 1 ),
"update": 0,
"values": [ Vector2( -37.905, 146.205 ), Vector2( -37.905, 146.205 ), Vector2( -37.905, 146.205 ), Vector2( -37.905, 146.205 ), Vector2( -37.905, 146.205 ), Vector2( -37.905, 146.205 ), Vector2( -37.905, 146.205 ), Vector2( -37.905, 146.205 ) ]
}
tracks/12/type = "value"
tracks/12/path = NodePath("Skeleton2D/Hip/HipUpperRight/LegUpperRight/Bone2D:rotation_degrees")
tracks/12/interp = 1
tracks/12/loop_wrap = true
tracks/12/imported = false
tracks/12/enabled = true
tracks/12/keys = {
"times": PoolRealArray( 0, 0.2, 0.4, 0.6, 0.8, 1, 1.1, 1.2 ),
"transitions": PoolRealArray( 1, 1, 1, 1, 1, 1, 1, 1 ),
"update": 0,
"values": [ 0.0, 0.0, 0.0, 0.0, 0.0, 0.0, 0.0, 0.0 ]
}
tracks/13/type = "value"
tracks/13/path = NodePath("Skeleton2D/Hip/Body/shoulder/ArmRightUpper/ArmRightLower/Hand:position")
tracks/13/interp = 1
tracks/13/loop_wrap = true
tracks/13/imported = false
tracks/13/enabled = true
tracks/13/keys = {
"times": PoolRealArray( 0, 0.2, 0.4, 0.6, 0.8, 1, 1.2 ),
"transitions": PoolRealArray( 1, 1, 1, 1, 1, 1, 1 ),
"update": 0,
"values": [ Vector2( -3.01468, 48.2349 ), Vector2( -3.01468, 48.2349 ), Vector2( -3.01468, 48.2349 ), Vector2( -3.01468, 48.2349 ), Vector2( -3.01468, 48.2349 ), Vector2( -3.01468, 48.2349 ), Vector2( -3.01468, 48.2349 ) ]
}
tracks/14/type = "value"
tracks/14/path = NodePath("Skeleton2D/Hip/LegUpperRight2/LegLowerRight:position")
tracks/14/interp = 1
tracks/14/loop_wrap = true
tracks/14/imported = false
tracks/14/enabled = true
tracks/14/keys = {
"times": PoolRealArray( 0, 0.2, 0.4, 0.6, 0.8, 1, 1.1, 1.2 ),
"transitions": PoolRealArray( 1, 1, 1, 1, 1, 1, 1, 1 ),
"update": 0,
"values": [ Vector2( 20.4312, 92.524 ), Vector2( 20.4312, 92.524 ), Vector2( 20.4312, 92.524 ), Vector2( 20.4312, 92.524 ), Vector2( 20.4312, 92.524 ), Vector2( 22.4729, 92.3335 ), Vector2( 21.452, 92.4288 ), Vector2( 20.4312, 92.524 ) ]
}
tracks/15/type = "value"
tracks/15/path = NodePath("Skeleton2D/Hip/HipUpperRight:position")
tracks/15/interp = 1
tracks/15/loop_wrap = true
tracks/15/imported = false
tracks/15/enabled = true
tracks/15/keys = {
"times": PoolRealArray( 0, 0.2, 0.4, 0.6, 0.8, 1, 1.1, 1.2 ),
"transitions": PoolRealArray( 1, 1, 1, 1, 1, 1, 1, 1 ),
"update": 0,
"values": [ Vector2( -22.2648, -19.5885 ), Vector2( -20.6781, -19.5876 ), Vector2( -20.6781, -19.5876 ), Vector2( -20.6771, -21.4382 ), Vector2( -20.6771, -21.4382 ), Vector2( -20.6771, -21.4382 ), Vector2( -21.4709, -20.5133 ), Vector2( -22.2648, -19.5885 ) ]
}
tracks/16/type = "value"
tracks/16/path = NodePath("Skeleton2D/Hip/HipUpperRight:rotation_degrees")
tracks/16/interp = 1
tracks/16/loop_wrap = true
tracks/16/imported = false
tracks/16/enabled = true
tracks/16/keys = {
"times": PoolRealArray( 0, 0.2, 0.4, 0.6, 0.8, 1, 1.1, 1.2 ),
"transitions": PoolRealArray( 1, 1, 1, 1, 1, 1, 1, 1 ),
"update": 0,
"values": [ 26.9275, 31.0953, -0.881583, -43.1903, -36.128, 7.13212, 17.0298, 26.9275 ]
}
tracks/17/type = "value"
tracks/17/path = NodePath("Skeleton2D/Hip/Body/shoulder2/ArmLeftUpper:position")
tracks/17/interp = 1
tracks/17/loop_wrap = true
tracks/17/imported = false
tracks/17/enabled = true
tracks/17/keys = {
"times": PoolRealArray( 0, 0.2, 0.4, 0.6, 0.8, 1, 1.1, 1.2 ),
"transitions": PoolRealArray( 1, 1, 1, 1, 1, 1, 1, 1 ),
"update": 0,
"values": [ Vector2( 8.11298, 186.603 ), Vector2( 8.11298, 186.603 ), Vector2( 8.11298, 186.603 ), Vector2( 8.11298, 186.603 ), Vector2( 8.11298, 186.603 ), Vector2( 8.11298, 186.603 ), Vector2( 8.11298, 186.603 ), Vector2( 8.11298, 186.603 ) ]
}
tracks/18/type = "value"
tracks/18/path = NodePath("Skeleton2D/Hip/LegUpperRight2/LegLowerRight/Bone2D:position")
tracks/18/interp = 1
tracks/18/loop_wrap = true
tracks/18/imported = false
tracks/18/enabled = true
tracks/18/keys = {
"times": PoolRealArray( 0, 0.2, 0.4, 0.6, 0.8, 1, 1.1, 1.2 ),
"transitions": PoolRealArray( 1, 1, 1, 1, 1, 1, 1, 1 ),
"update": 0,
"values": [ Vector2( -34.7368, 147.368 ), Vector2( -34.7368, 147.368 ), Vector2( -34.7368, 147.368 ), Vector2( -34.7368, 147.368 ), Vector2( -34.7368, 147.368 ), Vector2( -34.7368, 147.368 ), Vector2( -34.7368, 147.368 ), Vector2( -34.7368, 147.368 ) ]
}
tracks/19/type = "value"
tracks/19/path = NodePath("Skeleton2D/Hip/LegUpperRight2/LegLowerRight/Bone2D:rotation_degrees")
tracks/19/interp = 1
tracks/19/loop_wrap = true
tracks/19/imported = false
tracks/19/enabled = true
tracks/19/keys = {
"times": PoolRealArray( 0, 0.2, 0.4, 0.6, 0.8, 1, 1.1, 1.2 ),
"transitions": PoolRealArray( 1, 1, 1, 1, 1, 1, 1, 1 ),
"update": 0,
"values": [ 0.0, 0.0, 0.0, 0.0, 0.0, 0.0, 0.0, 0.0 ]
}
tracks/20/type = "value"
tracks/20/path = NodePath("Skeleton2D/Hip/Body/shoulder2:position")
tracks/20/interp = 1
tracks/20/loop_wrap = true
tracks/20/imported = false
tracks/20/enabled = true
tracks/20/keys = {
"times": PoolRealArray( 0, 0.2, 0.4, 0.6, 0.8, 1, 1.1, 1.2 ),
"transitions": PoolRealArray( 1, 1, 1, 1, 1, 1, 1, 1 ),
"update": 0,
"values": [ Vector2( 24.1841, -225.587 ), Vector2( 24.1841, -225.587 ), Vector2( 24.1841, -225.587 ), Vector2( 24.1841, -225.587 ), Vector2( 24.1841, -225.587 ), Vector2( 24.1841, -225.587 ), Vector2( 24.1841, -225.587 ), Vector2( 24.1841, -225.587 ) ]
}
tracks/21/type = "value"
tracks/21/path = NodePath("Skeleton2D/Hip/HipUpperRight/LegUpperRight:position")
tracks/21/interp = 1
tracks/21/loop_wrap = true
tracks/21/imported = false
tracks/21/enabled = true
tracks/21/keys = {
"times": PoolRealArray( 0, 0.2, 0.4, 0.6, 0.8, 1, 1.1, 1.2 ),
"transitions": PoolRealArray( 1, 1, 1, 1, 1, 1, 1, 1 ),
"update": 0,
"values": [ Vector2( 28.2275, 86.8589 ), Vector2( 28.2275, 86.8589 ), Vector2( 28.2275, 86.8589 ), Vector2( 28.2275, 86.8589 ), Vector2( 28.2275, 86.8589 ), Vector2( 28.2275, 86.8589 ), Vector2( 28.2275, 86.8589 ), Vector2( 28.2275, 86.8589 ) ]
}
tracks/22/type = "value"
tracks/22/path = NodePath("Skeleton2D/Hip/HipUpperRight/LegUpperRight:rotation_degrees")
tracks/22/interp = 1
tracks/22/loop_wrap = true
tracks/22/imported = false
tracks/22/enabled = true
tracks/22/keys = {
"times": PoolRealArray( 0, 0.2, 0.4, 0.6, 0.8, 1, 1.1, 1.2 ),
"transitions": PoolRealArray( 1, 1, 1, 1, 1, 1, 1, 1 ),
"update": 0,
"values": [ 24.4684, 28.5922, 71.3579, 30.6442, -11.7624, -11.7624, 6.353, 24.4684 ]
}
tracks/23/type = "value"
tracks/23/path = NodePath("Skeleton2D/Hip/Body/shoulder2/ArmLeftUpper/ArmLeftLower/Hand:position")
tracks/23/interp = 1
tracks/23/loop_wrap = true
tracks/23/imported = false
tracks/23/enabled = true
tracks/23/keys = {
"times": PoolRealArray( 0, 0.2, 0.4, 0.6, 0.8, 1, 1.1, 1.2 ),
"transitions": PoolRealArray( 1, 1, 1, 1, 1, 1, 1, 1 ),
"update": 0,
"values": [ Vector2( 10.5514, 60.2936 ), Vector2( 10.5514, 60.2936 ), Vector2( 10.5514, 60.2936 ), Vector2( 10.5514, 60.2936 ), Vector2( 10.5514, 60.2936 ), Vector2( 10.5514, 60.2936 ), Vector2( 10.5514, 60.2936 ), Vector2( 10.5514, 60.2936 ) ]
}
tracks/24/type = "value"
tracks/24/path = NodePath("Skeleton2D/Hip/LegUpperRight2:position")
tracks/24/interp = 1
tracks/24/loop_wrap = true
tracks/24/imported = false
tracks/24/enabled = true
tracks/24/keys = {
"times": PoolRealArray( 0, 0.2, 0.4, 0.6, 0.8, 1, 1.1, 1.2 ),
"transitions": PoolRealArray( 1, 1, 1, 1, 1, 1, 1, 1 ),
"update": 0,
"values": [ Vector2( 53.183, -40.4417 ), Vector2( 53.183, -40.4417 ), Vector2( 53.183, -40.4417 ), Vector2( 53.183, -40.4417 ), Vector2( 53.183, -40.4417 ), Vector2( 53.183, -40.4417 ), Vector2( 53.183, -40.4417 ), Vector2( 53.183, -40.4417 ) ]
}
tracks/25/type = "value"
tracks/25/path = NodePath("Skeleton2D/Hip/LegUpperRight2:rotation_degrees")
tracks/25/interp = 1
tracks/25/loop_wrap = true
tracks/25/imported = false
tracks/25/enabled = true
tracks/25/keys = {
"times": PoolRealArray( 0, 0.2, 0.4, 0.6, 0.8, 1, 1.1, 1.2 ),
"transitions": PoolRealArray( 1, 1, 1, 1, 1, 1, 1, 1 ),
"update": 0,
"values": [ 2.07942, -21.6497, 11.8609, 23.3446, 35.9881, 5.36336, 3.72139, 2.07942 ]
}
tracks/26/type = "value"
tracks/26/path = NodePath("Skeleton2D/Hip/Body/shoulder/ArmRightUpper/ArmRightLower:position")
tracks/26/interp = 1
tracks/26/loop_wrap = true
tracks/26/imported = false
tracks/26/enabled = true
tracks/26/keys = {
"times": PoolRealArray( 0, 0.2, 0.4, 0.6, 0.8, 1, 1.1, 1.2 ),
"transitions": PoolRealArray( 1, 1, 1, 1, 1, 1, 1, 1 ),
"update": 0,
"values": [ Vector2( 0, 195.954 ), Vector2( 0, 195.954 ), Vector2( 0, 195.954 ), Vector2( 0, 195.954 ), Vector2( 0, 195.954 ), Vector2( 0, 195.954 ), Vector2( 0, 195.954 ), Vector2( 0, 195.954 ) ]
}
tracks/27/type = "value"
tracks/27/path = NodePath("Skeleton2D/Hip/Body/shoulder2/ArmLeftUpper/ArmLeftLower:position")
tracks/27/interp = 1
tracks/27/loop_wrap = true
tracks/27/imported = false
tracks/27/enabled = true
tracks/27/keys = {
"times": PoolRealArray( 0, 0.2, 0.4, 0.6, 0.8, 1, 1.1, 1.2 ),
"transitions": PoolRealArray( 1, 1, 1, 1, 1, 1, 1, 1 ),
"update": 0,
"values": [ Vector2( 27.075, 189.637 ), Vector2( 27.075, 189.637 ), Vector2( 27.075, 189.637 ), Vector2( 27.075, 189.637 ), Vector2( 27.075, 189.637 ), Vector2( 27.075, 189.637 ), Vector2( 27.075, 189.637 ), Vector2( 27.075, 189.637 ) ]
}
tracks/28/type = "value"
tracks/28/path = NodePath(".:position")
tracks/28/interp = 1
tracks/28/loop_wrap = true
tracks/28/imported = false
tracks/28/enabled = true
tracks/28/keys = {
"times": PoolRealArray( 0, 0.2, 0.4, 0.6, 0.8, 1, 1.1, 1.2 ),
"transitions": PoolRealArray( 1, 1, 1, 1, 1, 1, 1, 1 ),
"update": 0,
"values": [ Vector2( 0, 0 ), Vector2( 0, 0 ), Vector2( 0, 0 ), Vector2( 0, 0 ), Vector2( 0, 0 ), Vector2( 0, 0 ), Vector2( 0, 0 ), Vector2( 0, 0 ) ]
}
tracks/29/type = "value"
tracks/29/path = NodePath(".:rotation_degrees")
tracks/29/interp = 1
tracks/29/loop_wrap = true
tracks/29/imported = false
tracks/29/enabled = true
tracks/29/keys = {
"times": PoolRealArray( 0, 0.2, 0.4, 0.6, 0.8, 1, 1.1, 1.2 ),
"transitions": PoolRealArray( 1, 1, 1, 1, 1, 1, 1, 1 ),
"update": 0,
"values": [ 0.0, 0.0, 0.0, 0.0, 0.0, 0.0, 0.0, 0.0 ]
}
tracks/30/type = "value"
tracks/30/path = NodePath("Skeleton2D/Hip/Body/Neck/Head:position")
tracks/30/interp = 1
tracks/30/loop_wrap = true
tracks/30/imported = false
tracks/30/enabled = true
tracks/30/keys = {
"times": PoolRealArray( 0, 0.2, 0.4, 0.6, 0.8, 1, 1.1, 1.2 ),
"transitions": PoolRealArray( 1, 1, 1, 1, 1, 1, 1, 1 ),
"update": 0,
"values": [ Vector2( 4.14966, -114.213 ), Vector2( 4.14966, -114.213 ), Vector2( 4.14966, -114.213 ), Vector2( 4.14966, -114.213 ), Vector2( -2.08805, -115.984 ), Vector2( -2.08805, -115.984 ), Vector2( 1.0308, -115.099 ), Vector2( 4.14966, -114.213 ) ]
}
tracks/31/type = "value"
tracks/31/path = NodePath("Skeleton2D/Hip/Body/Neck/Head:rotation_degrees")
tracks/31/interp = 1
tracks/31/loop_wrap = true
tracks/31/imported = false
tracks/31/enabled = true
tracks/31/keys = {
"times": PoolRealArray( 0, 0.2, 0.4, 0.6, 0.8, 1, 1.1, 1.2 ),
"transitions": PoolRealArray( 1, 1, 1, 1, 1, 1, 1, 1 ),
"update": 0,
"values": [ 0.0, 0.0, -3.41378, -3.41378, -3.41378, -8.13901, -4.06951, 0.0 ]
}
tracks/32/type = "value"
tracks/32/path = NodePath("Skeleton2D/Hip/Body/Neck/Head/Bone2D:position")
tracks/32/interp = 1
tracks/32/loop_wrap = true
tracks/32/imported = false
tracks/32/enabled = true
tracks/32/keys = {
"times": PoolRealArray( 0, 0.2, 0.4, 0.6, 0.8, 1, 1.1, 1.2 ),
"transitions": PoolRealArray( 1, 1, 1, 1, 1, 1, 1, 1 ),
"update": 0,
"values": [ Vector2( 186.616, -26.826 ), Vector2( 186.616, -26.826 ), Vector2( 186.616, -26.826 ), Vector2( 186.616, -26.826 ), Vector2( 186.616, -26.826 ), Vector2( 186.616, -26.826 ), Vector2( 186.616, -26.826 ), Vector2( 186.616, -26.826 ) ]
}
tracks/33/type = "value"
tracks/33/path = NodePath("Skeleton2D/Hip/Body/Neck/Head/Bone2D:rotation_degrees")
tracks/33/interp = 1
tracks/33/loop_wrap = true
tracks/33/imported = false
tracks/33/enabled = true
tracks/33/keys = {
"times": PoolRealArray( 0, 0.2, 0.4, 0.6, 0.8, 1, 1.1, 1.2 ),
"transitions": PoolRealArray( 1, 1, 1, 1, 1, 1, 1, 1 ),
"update": 0,
"values": [ 0.0, 0.0, 0.0, 0.0, 0.0, 0.0, 0.0, 0.0 ]
}
tracks/34/type = "value"
tracks/34/path = NodePath("Skeleton2D/Hip/Body/shoulder:position")
tracks/34/interp = 1
tracks/34/loop_wrap = true
tracks/34/imported = false
tracks/34/enabled = true
tracks/34/keys = {
"times": PoolRealArray( 0, 0.2, 0.4, 0.6, 0.8, 1, 1.1, 1.2 ),
"transitions": PoolRealArray( 1, 1, 1, 1, 1, 1, 1, 1 ),
"update": 0,
"values": [ Vector2( -46.1036, -222.553 ), Vector2( -46.1036, -222.553 ), Vector2( -46.1036, -222.553 ), Vector2( -46.1036, -222.553 ), Vector2( -46.1036, -222.553 ), Vector2( -46.1036, -222.553 ), Vector2( -46.1036, -222.553 ), Vector2( -46.1036, -222.553 ) ]
}
tracks/35/type = "value"
tracks/35/path = NodePath("Skeleton2D/Hip/Body:position")
tracks/35/interp = 1
tracks/35/loop_wrap = true
tracks/35/imported = false
tracks/35/enabled = true
tracks/35/keys = {
"times": PoolRealArray( 0, 0.2, 0.4, 0.6, 0.8, 1, 1.1, 1.2 ),
"transitions": PoolRealArray( 1, 1, 1, 1, 1, 1, 1, 1 ),
"update": 0,
"values": [ Vector2( -6.71136, -82.5001 ), Vector2( -6.71136, -82.5001 ), Vector2( -6.71136, -82.5001 ), Vector2( -6.71136, -82.5001 ), Vector2( -6.71136, -82.5001 ), Vector2( -6.71136, -82.5001 ), Vector2( -6.71136, -82.5001 ), Vector2( -6.71136, -82.5001 ) ]
}
tracks/36/type = "value"
tracks/36/path = NodePath("Skeleton2D/Hip/Body/Neck:position")
tracks/36/interp = 1
tracks/36/loop_wrap = true
tracks/36/imported = false
tracks/36/enabled = true
tracks/36/keys = {
"times": PoolRealArray( 0, 0.2, 0.4, 0.6, 0.8, 1, 1.1, 1.2 ),
"transitions": PoolRealArray( 1, 1, 1, 1, 1, 1, 1, 1 ),
"update": 0,
"values": [ Vector2( 0.538574, -245.065 ), Vector2( 0.538574, -245.065 ), Vector2( 0.538574, -245.065 ), Vector2( 0.538574, -245.065 ), Vector2( 0.538574, -245.065 ), Vector2( 0.538574, -245.065 ), Vector2( 0.538574, -245.065 ), Vector2( 0.538574, -245.065 ) ]
}
tracks/37/type = "value"
tracks/37/path = NodePath("Skeleton2D/Hip/Body/Neck:rotation_degrees")
tracks/37/interp = 1
tracks/37/loop_wrap = true
tracks/37/imported = false
tracks/37/enabled = true
tracks/37/keys = {
"times": PoolRealArray( 0, 0.2, 0.4, 0.6, 0.8, 1, 1.1, 1.2 ),
"transitions": PoolRealArray( 1, 1, 1, 1, 1, 1, 1, 1 ),
"update": 0,
"values": [ 3.76743, 6.61268, 1.66338, 1.66338, 1.66338, 1.66338, 2.7154, 3.76743 ]
}
tracks/38/type = "value"
tracks/38/path = NodePath("Skeleton2D/Hip/Body/shoulder/ArmRightUpper:position")
tracks/38/interp = 1
tracks/38/loop_wrap = true
tracks/38/imported = false
tracks/38/enabled = true
tracks/38/keys = {
"times": PoolRealArray( 0, 0.2, 0.4, 0.6, 0.8, 1, 1.1, 1.2 ),
"transitions": PoolRealArray( 1, 1, 1, 1, 1, 1, 1, 1 ),
"update": 0,
"values": [ Vector2( -4.52203, 183.895 ), Vector2( -4.52203, 183.895 ), Vector2( -4.52203, 183.895 ), Vector2( -4.52203, 183.895 ), Vector2( -4.52203, 183.895 ), Vector2( -4.52203, 183.895 ), Vector2( -4.52203, 183.895 ), Vector2( -4.52203, 183.895 ) ]
}
tracks/39/type = "value"
tracks/39/path = NodePath("Skeleton2D/Hip/Body/shoulder/ArmRightUpper/ArmRightLower/Hand:rotation_degrees")
tracks/39/interp = 1
tracks/39/loop_wrap = true
tracks/39/imported = false
tracks/39/enabled = true
tracks/39/keys = {
"times": PoolRealArray( 0, 0.2, 0.4, 0.6, 0.8, 1 ),
"transitions": PoolRealArray( 1, 1, 1, 1, 1, 1 ),
"update": 0,
"values": [ 0.0, -8.38301, -51.2497, -51.2497, -51.2497, -51.2497 ]
}
tracks/40/type = "value"
tracks/40/path = NodePath("Skeleton2D/Hip/Body/shoulder/ArmRightUpper/ArmRightLower:rotation_degrees")
tracks/40/interp = 1
tracks/40/loop_wrap = true
tracks/40/imported = false
tracks/40/enabled = true
tracks/40/keys = {
"times": PoolRealArray( 0, 0.2, 0.4, 0.6, 0.8, 1 ),
"transitions": PoolRealArray( 1, 1, 1, 1, 1, 1 ),
"update": 0,
"values": [ -14.9757, -29.1379, -28.9381, -28.9381, -4.95268, -4.95268 ]
}
tracks/41/type = "value"
tracks/41/path = NodePath("Skeleton2D/Hip/Body/shoulder:rotation_degrees")
tracks/41/interp = 1
tracks/41/loop_wrap = true
tracks/41/imported = false
tracks/41/enabled = true
tracks/41/keys = {
"times": PoolRealArray( 0, 0.2, 0.4, 0.6, 0.8, 1 ),
"transitions": PoolRealArray( 1, 1, 1, 1, 1, 1 ),
"update": 0,
"values": [ -11.9043, -38.1399, -18.4494, 20.6886, 42.1858, 24.7599 ]
}
tracks/42/type = "value"
tracks/42/path = NodePath("Skeleton2D/Hip/Body/shoulder/ArmRightUpper:rotation_degrees")
tracks/42/interp = 1
tracks/42/loop_wrap = true
tracks/42/imported = false
tracks/42/enabled = true
tracks/42/keys = {
"times": PoolRealArray( 0, 0.2, 0.4, 0.6, 0.8, 1 ),
"transitions": PoolRealArray( 1, 1, 1, 1, 1, 1 ),
"update": 0,
"values": [ -28.3258, -36.3733, -25.6232, -40.0496, -31.7141, -31.7141 ]
}
tracks/43/type = "value"
tracks/43/path = NodePath("Skeleton2D/Hip/LegUpperRight2/LegLowerRight:rotation_degrees")
tracks/43/interp = 1
tracks/43/loop_wrap = true
tracks/43/imported = false
tracks/43/enabled = true
tracks/43/keys = {
"times": PoolRealArray( 0, 0.2, 0.4, 0.6, 0.8, 1 ),
"transitions": PoolRealArray( 1, 1, 1, 1, 1, 1 ),
"update": 0,
"values": [ 11.8849, 18.295, -15.657, 4.42162, 4.42162, 42.4889 ]
}
tracks/44/type = "value"
tracks/44/path = NodePath("Skeleton2D/Hip/Body/shoulder2/ArmLeftUpper:rotation_degrees")
tracks/44/interp = 1
tracks/44/loop_wrap = true
tracks/44/imported = false
tracks/44/enabled = true
tracks/44/keys = {
"times": PoolRealArray( 0, 0.2, 0.4, 0.6, 0.8, 1 ),
"transitions": PoolRealArray( 1, 1, 1, 1, 1, 1 ),
"update": 0,
"values": [ -28.0024, -28.0024, -58.7598, -58.7598, -52.5426, -14.7099 ]
}
tracks/45/type = "value"
tracks/45/path = NodePath("Skeleton2D/Hip/Body/shoulder2:rotation_degrees")
tracks/45/interp = 1
tracks/45/loop_wrap = true
tracks/45/imported = false
tracks/45/enabled = true
tracks/45/keys = {
"times": PoolRealArray( 0, 0.2, 0.4, 0.6, 0.8, 1 ),
"transitions": PoolRealArray( 1, 1, 1, 1, 1, 1 ),
"update": 0,
"values": [ 18.3964, 56.4656, 23.8238, 6.20811, -5.54648, -5.54648 ]
}
tracks/46/type = "value"
tracks/46/path = NodePath("Skeleton2D/Hip/Body/shoulder2/ArmLeftUpper/ArmLeftLower/Hand:rotation_degrees")
tracks/46/interp = 1
tracks/46/loop_wrap = true
tracks/46/imported = false
tracks/46/enabled = true
tracks/46/keys = {
"times": PoolRealArray( 0, 0.2, 0.4, 0.6, 0.8, 1 ),
"transitions": PoolRealArray( 1, 1, 1, 1, 1, 1 ),
"update": 0,
"values": [ 0.0, 17.4007, 17.4007, 17.4007, 17.4007, 17.4007 ]
}
tracks/47/type = "value"
tracks/47/path = NodePath("Skeleton2D/Hip/Body/shoulder2/ArmLeftUpper/ArmLeftLower:rotation_degrees")
tracks/47/interp = 1
tracks/47/loop_wrap = true
tracks/47/imported = false
tracks/47/enabled = true
tracks/47/keys = {
"times": PoolRealArray( 0, 0.2, 0.4, 0.6, 0.8, 1 ),
"transitions": PoolRealArray( 1, 1, 1, 1, 1, 1 ),
"update": 0,
"values": [ -0.871695, -4.83192, -4.83192, -4.83192, -4.83192, -4.83192 ]
}
tracks/48/type = "value"
tracks/48/path = NodePath("Skeleton2D/Hip:rotation_degrees")
tracks/48/interp = 1
tracks/48/loop_wrap = true
tracks/48/imported = false
tracks/48/enabled = true
tracks/48/keys = {
"times": PoolRealArray( 0, 0.2, 0.4, 0.6, 0.8, 1 ),
"transitions": PoolRealArray( 1, 1, 1, 1, 1, 1 ),
"update": 0,
"values": [ 0.214358, 0.214358, 0.214358, 0.214358, 0.214358, 0.214358 ]
}
tracks/49/type = "value"
tracks/49/path = NodePath("Skeleton2D/Hip/Body:rotation_degrees")
tracks/49/interp = 1
tracks/49/loop_wrap = true
tracks/49/imported = false
tracks/49/enabled = true
tracks/49/keys = {
"times": PoolRealArray( 0, 0.2, 0.4, 0.6, 0.8, 1 ),
"transitions": PoolRealArray( 1, 1, 1, 1, 1, 1 ),
"update": 0,
"values": [ 0.0, 0.95076, 0.95076, 0.95076, 0.95076, 0.95076 ]
}
tracks/50/type = "value"
tracks/50/path = NodePath("Skeleton2D/Hip/HipUpperRight/LegUpperRight/Bone2D:position")
tracks/50/interp = 1
tracks/50/loop_wrap = true
tracks/50/imported = false
tracks/50/enabled = true
tracks/50/keys = {
"times": PoolRealArray( 0, 0.2, 0.4, 0.6, 0.8, 1 ),
"transitions": PoolRealArray( 1, 1, 1, 1, 1, 1 ),
"update": 0,
"values": [ Vector2( -37.905, 146.205 ), Vector2( -37.905, 146.205 ), Vector2( -37.905, 146.205 ), Vector2( -37.905, 146.205 ), Vector2( -37.905, 146.205 ), Vector2( -37.905, 146.205 ) ]
}
tracks/51/type = "value"
tracks/51/path = NodePath("Skeleton2D/Hip/HipUpperRight/LegUpperRight/Bone2D:rotation_degrees")
tracks/51/interp = 1
tracks/51/loop_wrap = true
tracks/51/imported = false
tracks/51/enabled = true
tracks/51/keys = {
"times": PoolRealArray( 0, 0.2, 0.4, 0.6, 0.8, 1 ),
"transitions": PoolRealArray( 1, 1, 1, 1, 1, 1 ),
"update": 0,
"values": [ 0.0, 0.0, 0.0, 0.0, 0.0, 0.0 ]
}
tracks/52/type = "value"
tracks/52/path = NodePath("Skeleton2D/Hip/Body/shoulder/ArmRightUpper/ArmRightLower/Hand:position")
tracks/52/interp = 1
tracks/52/loop_wrap = true
tracks/52/imported = false
tracks/52/enabled = true
tracks/52/keys = {
"times": PoolRealArray( 0, 0.2, 0.4, 0.6, 0.8, 1 ),
"transitions": PoolRealArray( 1, 1, 1, 1, 1, 1 ),
"update": 0,
"values": [ Vector2( -3.01468, 48.2349 ), Vector2( -3.01468, 48.2349 ), Vector2( -3.01468, 48.2349 ), Vector2( -3.01468, 48.2349 ), Vector2( -3.01468, 48.2349 ), Vector2( -3.01468, 48.2349 ) ]
}
tracks/53/type = "value"
tracks/53/path = NodePath("Skeleton2D/Hip/LegUpperRight2/LegLowerRight:position")
tracks/53/interp = 1
tracks/53/loop_wrap = true
tracks/53/imported = false
tracks/53/enabled = true
tracks/53/keys = {
"times": PoolRealArray( 0, 0.2, 0.4, 0.6, 0.8, 1 ),
"transitions": PoolRealArray( 1, 1, 1, 1, 1, 1 ),
"update": 0,
"values": [ Vector2( 20.4312, 92.524 ), Vector2( 20.4312, 92.524 ), Vector2( 20.4312, 92.524 ), Vector2( 20.4312, 92.524 ), Vector2( 20.4312, 92.524 ), Vector2( 22.4729, 92.3335 ) ]
}
tracks/54/type = "value"
tracks/54/path = NodePath("Skeleton2D/Hip/HipUpperRight:position")
tracks/54/interp = 1
tracks/54/loop_wrap = true
tracks/54/imported = false
tracks/54/enabled = true
tracks/54/keys = {
"times": PoolRealArray( 0, 0.2, 0.4, 0.6, 0.8, 1 ),
"transitions": PoolRealArray( 1, 1, 1, 1, 1, 1 ),
"update": 0,
"values": [ Vector2( -22.2648, -19.5885 ), Vector2( -20.6781, -19.5876 ), Vector2( -20.6781, -19.5876 ), Vector2( -20.6771, -21.4382 ), Vector2( -20.6771, -21.4382 ), Vector2( -20.6771, -21.4382 ) ]
}
tracks/55/type = "value"
tracks/55/path = NodePath("Skeleton2D/Hip/HipUpperRight:rotation_degrees")
tracks/55/interp = 1
tracks/55/loop_wrap = true
tracks/55/imported = false
tracks/55/enabled = true
tracks/55/keys = {
"times": PoolRealArray( 0, 0.2, 0.4, 0.6, 0.8, 1 ),
"transitions": PoolRealArray( 1, 1, 1, 1, 1, 1 ),
"update": 0,
"values": [ 26.9275, 31.0953, -0.881583, -43.1903, -36.128, 7.13212 ]
}
tracks/56/type = "value"
tracks/56/path = NodePath("Skeleton2D/Hip/Body/shoulder2/ArmLeftUpper:position")
tracks/56/interp = 1
tracks/56/loop_wrap = true
tracks/56/imported = false
tracks/56/enabled = true
tracks/56/keys = {
"times": PoolRealArray( 0, 0.2, 0.4, 0.6, 0.8, 1 ),
"transitions": PoolRealArray( 1, 1, 1, 1, 1, 1 ),
"update": 0,
"values": [ Vector2( 8.11298, 186.603 ), Vector2( 8.11298, 186.603 ), Vector2( 8.11298, 186.603 ), Vector2( 8.11298, 186.603 ), Vector2( 8.11298, 186.603 ), Vector2( 8.11298, 186.603 ) ]
}
tracks/57/type = "value"
tracks/57/path = NodePath("Skeleton2D/Hip/LegUpperRight2/LegLowerRight/Bone2D:position")
tracks/57/interp = 1
tracks/57/loop_wrap = true
tracks/57/imported = false
tracks/57/enabled = true
tracks/57/keys = {
"times": PoolRealArray( 0, 0.2, 0.4, 0.6, 0.8, 1 ),
"transitions": PoolRealArray( 1, 1, 1, 1, 1, 1 ),
"update": 0,
"values": [ Vector2( -34.7368, 147.368 ), Vector2( -34.7368, 147.368 ), Vector2( -34.7368, 147.368 ), Vector2( -34.7368, 147.368 ), Vector2( -34.7368, 147.368 ), Vector2( -34.7368, 147.368 ) ]
}
tracks/58/type = "value"
tracks/58/path = NodePath("Skeleton2D/Hip/LegUpperRight2/LegLowerRight/Bone2D:rotation_degrees")
tracks/58/interp = 1
tracks/58/loop_wrap = true
tracks/58/imported = false
tracks/58/enabled = true
tracks/58/keys = {
"times": PoolRealArray( 0, 0.2, 0.4, 0.6, 0.8, 1 ),
"transitions": PoolRealArray( 1, 1, 1, 1, 1, 1 ),
"update": 0,
"values": [ 0.0, 0.0, 0.0, 0.0, 0.0, 0.0 ]
}
tracks/59/type = "value"
tracks/59/path = NodePath("Skeleton2D/Hip/Body/shoulder2:position")
tracks/59/interp = 1
tracks/59/loop_wrap = true
tracks/59/imported = false
tracks/59/enabled = true
tracks/59/keys = {
"times": PoolRealArray( 0, 0.2, 0.4, 0.6, 0.8, 1 ),
"transitions": PoolRealArray( 1, 1, 1, 1, 1, 1 ),
"update": 0,
"values": [ Vector2( 24.1841, -225.587 ), Vector2( 24.1841, -225.587 ), Vector2( 24.1841, -225.587 ), Vector2( 24.1841, -225.587 ), Vector2( 24.1841, -225.587 ), Vector2( 24.1841, -225.587 ) ]
}
tracks/60/type = "value"
tracks/60/path = NodePath("Skeleton2D/Hip/HipUpperRight/LegUpperRight:position")
tracks/60/interp = 1
tracks/60/loop_wrap = true
tracks/60/imported = false
tracks/60/enabled = true
tracks/60/keys = {
"times": PoolRealArray( 0, 0.2, 0.4, 0.6, 0.8, 1 ),
"transitions": PoolRealArray( 1, 1, 1, 1, 1, 1 ),
"update": 0,
"values": [ Vector2( 28.2275, 86.8589 ), Vector2( 28.2275, 86.8589 ), Vector2( 28.2275, 86.8589 ), Vector2( 28.2275, 86.8589 ), Vector2( 28.2275, 86.8589 ), Vector2( 28.2275, 86.8589 ) ]
}
tracks/61/type = "value"
tracks/61/path = NodePath("Skeleton2D/Hip/HipUpperRight/LegUpperRight:rotation_degrees")
tracks/61/interp = 1
tracks/61/loop_wrap = true
tracks/61/imported = false
tracks/61/enabled = true
tracks/61/keys = {
"times": PoolRealArray( 0, 0.2, 0.4, 0.6, 0.8, 1 ),
"transitions": PoolRealArray( 1, 1, 1, 1, 1, 1 ),
"update": 0,
"values": [ 24.4684, 28.5922, 71.3579, 30.6442, -11.7624, -11.7624 ]
}
tracks/62/type = "value"
tracks/62/path = NodePath("Skeleton2D/Hip/Body/shoulder2/ArmLeftUpper/ArmLeftLower/Hand:position")
tracks/62/interp = 1
tracks/62/loop_wrap = true
tracks/62/imported = false
tracks/62/enabled = true
tracks/62/keys = {
"times": PoolRealArray( 0, 0.2, 0.4, 0.6, 0.8, 1 ),
"transitions": PoolRealArray( 1, 1, 1, 1, 1, 1 ),
"update": 0,
"values": [ Vector2( 10.5514, 60.2936 ), Vector2( 10.5514, 60.2936 ), Vector2( 10.5514, 60.2936 ), Vector2( 10.5514, 60.2936 ), Vector2( 10.5514, 60.2936 ), Vector2( 10.5514, 60.2936 ) ]
}
tracks/63/type = "value"
tracks/63/path = NodePath("Skeleton2D/Hip/LegUpperRight2:position")
tracks/63/interp = 1
tracks/63/loop_wrap = true
tracks/63/imported = false
tracks/63/enabled = true
tracks/63/keys = {
"times": PoolRealArray( 0, 0.2, 0.4, 0.6, 0.8, 1 ),
"transitions": PoolRealArray( 1, 1, 1, 1, 1, 1 ),
"update": 0,
"values": [ Vector2( 53.183, -40.4417 ), Vector2( 53.183, -40.4417 ), Vector2( 53.183, -40.4417 ), Vector2( 53.183, -40.4417 ), Vector2( 53.183, -40.4417 ), Vector2( 53.183, -40.4417 ) ]
}
tracks/64/type = "value"
tracks/64/path = NodePath("Skeleton2D/Hip/LegUpperRight2:rotation_degrees")
tracks/64/interp = 1
tracks/64/loop_wrap = true
tracks/64/imported = false
tracks/64/enabled = true
tracks/64/keys = {
"times": PoolRealArray( 0, 0.2, 0.4, 0.6, 0.8, 1 ),
"transitions": PoolRealArray( 1, 1, 1, 1, 1, 1 ),
"update": 0,
"values": [ 2.07942, -21.6497, 11.8609, 23.3446, 35.9881, 5.36336 ]
}
tracks/65/type = "value"
tracks/65/path = NodePath("Skeleton2D/Hip/Body/shoulder/ArmRightUpper/ArmRightLower:position")
tracks/65/interp = 1
tracks/65/loop_wrap = true
tracks/65/imported = false
tracks/65/enabled = true
tracks/65/keys = {
"times": PoolRealArray( 0, 0.2, 0.4, 0.6, 0.8, 1 ),
"transitions": PoolRealArray( 1, 1, 1, 1, 1, 1 ),
"update": 0,
"values": [ Vector2( 0, 195.954 ), Vector2( 0, 195.954 ), Vector2( 0, 195.954 ), Vector2( 0, 195.954 ), Vector2( 0, 195.954 ), Vector2( 0, 195.954 ) ]
}
tracks/66/type = "value"
tracks/66/path = NodePath("Skeleton2D/Hip/Body/shoulder2/ArmLeftUpper/ArmLeftLower:position")
tracks/66/interp = 1
tracks/66/loop_wrap = true
tracks/66/imported = false
tracks/66/enabled = true
tracks/66/keys = {
"times": PoolRealArray( 0, 0.2, 0.4, 0.6, 0.8, 1 ),
"transitions": PoolRealArray( 1, 1, 1, 1, 1, 1 ),
"update": 0,
"values": [ Vector2( 27.075, 189.637 ), Vector2( 27.075, 189.637 ), Vector2( 27.075, 189.637 ), Vector2( 27.075, 189.637 ), Vector2( 27.075, 189.637 ), Vector2( 27.075, 189.637 ) ]
}
tracks/67/type = "value"
tracks/67/path = NodePath(".:position")
tracks/67/interp = 1
tracks/67/loop_wrap = true
tracks/67/imported = false
tracks/67/enabled = true
tracks/67/keys = {
"times": PoolRealArray( 0, 0.2, 0.4, 0.6, 0.8, 1 ),
"transitions": PoolRealArray( 1, 1, 1, 1, 1, 1 ),
"update": 0,
"values": [ Vector2( 0, 0 ), Vector2( 0, 0 ), Vector2( 0, 0 ), Vector2( 0, 0 ), Vector2( 0, 0 ), Vector2( 0, 0 ) ]
}
tracks/68/type = "value"
tracks/68/path = NodePath(".:rotation_degrees")
tracks/68/interp = 1
tracks/68/loop_wrap = true
tracks/68/imported = false
tracks/68/enabled = true
tracks/68/keys = {
"times": PoolRealArray( 0, 0.2, 0.4, 0.6, 0.8, 1 ),
"transitions": PoolRealArray( 1, 1, 1, 1, 1, 1 ),
"update": 0,
"values": [ 0.0, 0.0, 0.0, 0.0, 0.0, 0.0 ]
}
tracks/69/type = "value"
tracks/69/path = NodePath("Skeleton2D/Hip/Body/Neck/Head:position")
tracks/69/interp = 1
tracks/69/loop_wrap = true
tracks/69/imported = false
tracks/69/enabled = true
tracks/69/keys = {
"times": PoolRealArray( 0, 0.2, 0.4, 0.6, 0.8, 1 ),
"transitions": PoolRealArray( 1, 1, 1, 1, 1, 1 ),
"update": 0,
"values": [ Vector2( 4.14966, -114.213 ), Vector2( 4.14966, -114.213 ), Vector2( 4.14966, -114.213 ), Vector2( 4.14966, -114.213 ), Vector2( -2.08805, -115.984 ), Vector2( -2.08805, -115.984 ) ]
}
tracks/70/type = "value"
tracks/70/path = NodePath("Skeleton2D/Hip/Body/Neck/Head:rotation_degrees")
tracks/70/interp = 1
tracks/70/loop_wrap = true
tracks/70/imported = false
tracks/70/enabled = true
tracks/70/keys = {
"times": PoolRealArray( 0, 0.2, 0.4, 0.6, 0.8, 1 ),
"transitions": PoolRealArray( 1, 1, 1, 1, 1, 1 ),
"update": 0,
"values": [ 0.0, 0.0, -3.41378, -3.41378, -3.41378, -8.13901 ]
}
tracks/71/type = "value"
tracks/71/path = NodePath("Skeleton2D/Hip:position")
tracks/71/interp = 1
tracks/71/loop_wrap = true
tracks/71/imported = false
tracks/71/enabled = true
tracks/71/keys = {
"times": PoolRealArray( 0, 0.2, 0.4, 0.6, 0.8, 1 ),
"transitions": PoolRealArray( 1, 1, 1, 1, 1, 1 ),
"update": 0,
"values": [ Vector2( 9.94647, -224.855 ), Vector2( 8.27756, -205.822 ), Vector2( 10.3902, -220.167 ), Vector2( 10.3982, -222.017 ), Vector2( 12.369, -203.554 ), Vector2( 6.33248, -230.237 ) ]
}
tracks/72/type = "value"
tracks/72/path = NodePath("Skeleton2D/Hip/Body/Neck/Head/Bone2D:position")
tracks/72/interp = 1
tracks/72/loop_wrap = true
tracks/72/imported = false
tracks/72/enabled = true
tracks/72/keys = {
"times": PoolRealArray( 0, 0.2, 0.4, 0.6, 0.8, 1 ),
"transitions": PoolRealArray( 1, 1, 1, 1, 1, 1 ),
"update": 0,
"values": [ Vector2( 186.616, -26.826 ), Vector2( 186.616, -26.826 ), Vector2( 186.616, -26.826 ), Vector2( 186.616, -26.826 ), Vector2( 186.616, -26.826 ), Vector2( 186.616, -26.826 ) ]
}
tracks/73/type = "value"
tracks/73/path = NodePath("Skeleton2D/Hip/Body/Neck/Head/Bone2D:rotation_degrees")
tracks/73/interp = 1
tracks/73/loop_wrap = true
tracks/73/imported = false
tracks/73/enabled = true
tracks/73/keys = {
"times": PoolRealArray( 0, 0.2, 0.4, 0.6, 0.8, 1 ),
"transitions": PoolRealArray( 1, 1, 1, 1, 1, 1 ),
"update": 0,
"values": [ 0.0, 0.0, 0.0, 0.0, 0.0, 0.0 ]
}
tracks/74/type = "value"
tracks/74/path = NodePath("Skeleton2D/Hip/Body/shoulder:position")
tracks/74/interp = 1
tracks/74/loop_wrap = true
tracks/74/imported = false
tracks/74/enabled = true
tracks/74/keys = {
"times": PoolRealArray( 0, 0.2, 0.4, 0.6, 0.8, 1 ),
"transitions": PoolRealArray( 1, 1, 1, 1, 1, 1 ),
"update": 0,
"values": [ Vector2( -46.1036, -222.553 ), Vector2( -46.1036, -222.553 ), Vector2( -46.1036, -222.553 ), Vector2( -46.1036, -222.553 ), Vector2( -46.1036, -222.553 ), Vector2( -46.1036, -222.553 ) ]
}
tracks/75/type = "value"
tracks/75/path = NodePath("Skeleton2D/Hip/Body:position")
tracks/75/interp = 1
tracks/75/loop_wrap = true
tracks/75/imported = false
tracks/75/enabled = true
tracks/75/keys = {
"times": PoolRealArray( 0, 0.2, 0.4, 0.6, 0.8, 1 ),
"transitions": PoolRealArray( 1, 1, 1, 1, 1, 1 ),
"update": 0,
"values": [ Vector2( -6.71136, -82.5001 ), Vector2( -6.71136, -82.5001 ), Vector2( -6.71136, -82.5001 ), Vector2( -6.71136, -82.5001 ), Vector2( -6.71136, -82.5001 ), Vector2( -6.71136, -82.5001 ) ]
}
tracks/76/type = "value"
tracks/76/path = NodePath("Skeleton2D/Hip/Body/Neck:position")
tracks/76/interp = 1
tracks/76/loop_wrap = true
tracks/76/imported = false
tracks/76/enabled = true
tracks/76/keys = {
"times": PoolRealArray( 0, 0.2, 0.4, 0.6, 0.8, 1 ),
"transitions": PoolRealArray( 1, 1, 1, 1, 1, 1 ),
"update": 0,
"values": [ Vector2( 0.538574, -245.065 ), Vector2( 0.538574, -245.065 ), Vector2( 0.538574, -245.065 ), Vector2( 0.538574, -245.065 ), Vector2( 0.538574, -245.065 ), Vector2( 0.538574, -245.065 ) ]
}
tracks/77/type = "value"
tracks/77/path = NodePath("Skeleton2D/Hip/Body/Neck:rotation_degrees")
tracks/77/interp = 1
tracks/77/loop_wrap = true
tracks/77/imported = false
tracks/77/enabled = true
tracks/77/keys = {
"times": PoolRealArray( 0, 0.2, 0.4, 0.6, 0.8, 1 ),
"transitions": PoolRealArray( 1, 1, 1, 1, 1, 1 ),
"update": 0,
"values": [ 3.76743, 6.61268, 1.66338, 1.66338, 1.66338, 1.66338 ]
}
tracks/78/type = "value"
tracks/78/path = NodePath("Skeleton2D/Hip/Body/shoulder/ArmRightUpper:position")
tracks/78/interp = 1
tracks/78/loop_wrap = true
tracks/78/imported = false
tracks/78/enabled = true
tracks/78/keys = {
"times": PoolRealArray( 0, 0.2, 0.4, 0.6, 0.8, 1 ),
"transitions": PoolRealArray( 1, 1, 1, 1, 1, 1 ),
"update": 0,
"values": [ Vector2( -4.52203, 183.895 ), Vector2( -4.52203, 183.895 ), Vector2( -4.52203, 183.895 ), Vector2( -4.52203, 183.895 ), Vector2( -4.52203, 183.895 ), Vector2( -4.52203, 183.895 ) ]
}

